scheduler/sched_build/dump.vcd
$date
	Wed Oct  2 23:13:18 2024
$end
$version
	Icarus Verilog
$end
$timescale
	100ps
$end
$scope module testbench $end
$var reg 1 ! clk $end
$var reg 16 " core_reading [15:0] $end
$var reg 16 # core_ready [15:0] $end
$var reg 16384 $ data_frames_in [16383:0] $end
$var reg 1 % prog_loading $end
$var reg 1 & reset $end
$var reg 16 ' tm_line [15:0] $end
$var integer 32 ( i [31:0] $end
$var integer 32 ) k [31:0] $end
$scope module scheduler $end
$var wire 1 ! clk $end
$var wire 16 * core_reading [15:0] $end
$var wire 16 + core_ready [15:0] $end
$var wire 16384 , data_frames_in [16383:0] $end
$var wire 16 - exec_mask [15:0] $end
$var wire 1 . flag1 $end
$var wire 16 / last_mask_w [15:0] $end
$var wire 1 0 no_wait_cf $end
$var wire 1 % prog_loading $end
$var wire 1 & reset $end
$var wire 1 1 write_en $end
$var wire 1 2 tmp $end
$var wire 1 3 flag2 $end
$var wire 2 4 fence_w [1:0] $end
$var reg 1 5 core_mask_loading $end
$var reg 2 6 fence [1:0] $end
$var reg 10 7 global_tp [9:0] $end
$var reg 6 8 if_num [5:0] $end
$var reg 16 9 init_r0_vect [15:0] $end
$var reg 1 : instr_loading $end
$var reg 16 ; last_mask [15:0] $end
$var reg 16 < mess_to_core [15:0] $end
$var reg 6 = next_if_num [5:0] $end
$var reg 1 > r0_loading $end
$var reg 1 ? r0_mask_loading $end
$var reg 1 @ wait_it $end
$var integer 32 A j [31:0] $end
$scope begin genblk1[0] $end
$upscope $end
$scope begin genblk1[1] $end
$upscope $end
$scope begin genblk1[2] $end
$upscope $end
$scope begin genblk1[3] $end
$upscope $end
$scope begin genblk1[4] $end
$upscope $end
$scope begin genblk1[5] $end
$upscope $end
$scope begin genblk1[6] $end
$upscope $end
$scope begin genblk1[7] $end
$upscope $end
$scope begin genblk1[8] $end
$upscope $end
$scope begin genblk1[9] $end
$upscope $end
$scope begin genblk1[10] $end
$upscope $end
$scope begin genblk1[11] $end
$upscope $end
$scope begin genblk1[12] $end
$upscope $end
$scope begin genblk1[13] $end
$upscope $end
$scope begin genblk1[14] $end
$upscope $end
$scope begin genblk1[15] $end
$upscope $end
$scope begin genblk1[16] $end
$upscope $end
$scope begin genblk1[17] $end
$upscope $end
$scope begin genblk1[18] $end
$upscope $end
$scope begin genblk1[19] $end
$upscope $end
$scope begin genblk1[20] $end
$upscope $end
$scope begin genblk1[21] $end
$upscope $end
$scope begin genblk1[22] $end
$upscope $end
$scope begin genblk1[23] $end
$upscope $end
$scope begin genblk1[24] $end
$upscope $end
$scope begin genblk1[25] $end
$upscope $end
$scope begin genblk1[26] $end
$upscope $end
$scope begin genblk1[27] $end
$upscope $end
$scope begin genblk1[28] $end
$upscope $end
$scope begin genblk1[29] $end
$upscope $end
$scope begin genblk1[30] $end
$upscope $end
$scope begin genblk1[31] $end
$upscope $end
$scope begin genblk1[32] $end
$upscope $end
$scope begin genblk1[33] $end
$upscope $end
$scope begin genblk1[34] $end
$upscope $end
$scope begin genblk1[35] $end
$upscope $end
$scope begin genblk1[36] $end
$upscope $end
$scope begin genblk1[37] $end
$upscope $end
$scope begin genblk1[38] $end
$upscope $end
$scope begin genblk1[39] $end
$upscope $end
$scope begin genblk1[40] $end
$upscope $end
$scope begin genblk1[41] $end
$upscope $end
$scope begin genblk1[42] $end
$upscope $end
$scope begin genblk1[43] $end
$upscope $end
$scope begin genblk1[44] $end
$upscope $end
$scope begin genblk1[45] $end
$upscope $end
$scope begin genblk1[46] $end
$upscope $end
$scope begin genblk1[47] $end
$upscope $end
$scope begin genblk1[48] $end
$upscope $end
$scope begin genblk1[49] $end
$upscope $end
$scope begin genblk1[50] $end
$upscope $end
$scope begin genblk1[51] $end
$upscope $end
$scope begin genblk1[52] $end
$upscope $end
$scope begin genblk1[53] $end
$upscope $end
$scope begin genblk1[54] $end
$upscope $end
$scope begin genblk1[55] $end
$upscope $end
$scope begin genblk1[56] $end
$upscope $end
$scope begin genblk1[57] $end
$upscope $end
$scope begin genblk1[58] $end
$upscope $end
$scope begin genblk1[59] $end
$upscope $end
$scope begin genblk1[60] $end
$upscope $end
$scope begin genblk1[61] $end
$upscope $end
$scope begin genblk1[62] $end
$upscope $end
$scope begin genblk1[63] $end
$upscope $end
$scope begin genblk1[64] $end
$upscope $end
$scope begin genblk1[65] $end
$upscope $end
$scope begin genblk1[66] $end
$upscope $end
$scope begin genblk1[67] $end
$upscope $end
$scope begin genblk1[68] $end
$upscope $end
$scope begin genblk1[69] $end
$upscope $end
$scope begin genblk1[70] $end
$upscope $end
$scope begin genblk1[71] $end
$upscope $end
$scope begin genblk1[72] $end
$upscope $end
$scope begin genblk1[73] $end
$upscope $end
$scope begin genblk1[74] $end
$upscope $end
$scope begin genblk1[75] $end
$upscope $end
$scope begin genblk1[76] $end
$upscope $end
$scope begin genblk1[77] $end
$upscope $end
$scope begin genblk1[78] $end
$upscope $end
$scope begin genblk1[79] $end
$upscope $end
$scope begin genblk1[80] $end
$upscope $end
$scope begin genblk1[81] $end
$upscope $end
$scope begin genblk1[82] $end
$upscope $end
$scope begin genblk1[83] $end
$upscope $end
$scope begin genblk1[84] $end
$upscope $end
$scope begin genblk1[85] $end
$upscope $end
$scope begin genblk1[86] $end
$upscope $end
$scope begin genblk1[87] $end
$upscope $end
$scope begin genblk1[88] $end
$upscope $end
$scope begin genblk1[89] $end
$upscope $end
$scope begin genblk1[90] $end
$upscope $end
$scope begin genblk1[91] $end
$upscope $end
$scope begin genblk1[92] $end
$upscope $end
$scope begin genblk1[93] $end
$upscope $end
$scope begin genblk1[94] $end
$upscope $end
$scope begin genblk1[95] $end
$upscope $end
$scope begin genblk1[96] $end
$upscope $end
$scope begin genblk1[97] $end
$upscope $end
$scope begin genblk1[98] $end
$upscope $end
$scope begin genblk1[99] $end
$upscope $end
$scope begin genblk1[100] $end
$upscope $end
$scope begin genblk1[101] $end
$upscope $end
$scope begin genblk1[102] $end
$upscope $end
$scope begin genblk1[103] $end
$upscope $end
$scope begin genblk1[104] $end
$upscope $end
$scope begin genblk1[105] $end
$upscope $end
$scope begin genblk1[106] $end
$upscope $end
$scope begin genblk1[107] $end
$upscope $end
$scope begin genblk1[108] $end
$upscope $end
$scope begin genblk1[109] $end
$upscope $end
$scope begin genblk1[110] $end
$upscope $end
$scope begin genblk1[111] $end
$upscope $end
$scope begin genblk1[112] $end
$upscope $end
$scope begin genblk1[113] $end
$upscope $end
$scope begin genblk1[114] $end
$upscope $end
$scope begin genblk1[115] $end
$upscope $end
$scope begin genblk1[116] $end
$upscope $end
$scope begin genblk1[117] $end
$upscope $end
$scope begin genblk1[118] $end
$upscope $end
$scope begin genblk1[119] $end
$upscope $end
$scope begin genblk1[120] $end
$upscope $end
$scope begin genblk1[121] $end
$upscope $end
$scope begin genblk1[122] $end
$upscope $end
$scope begin genblk1[123] $end
$upscope $end
$scope begin genblk1[124] $end
$upscope $end
$scope begin genblk1[125] $end
$upscope $end
$scope begin genblk1[126] $end
$upscope $end
$scope begin genblk1[127] $end
$upscope $end
$scope begin genblk1[128] $end
$upscope $end
$scope begin genblk1[129] $end
$upscope $end
$scope begin genblk1[130] $end
$upscope $end
$scope begin genblk1[131] $end
$upscope $end
$scope begin genblk1[132] $end
$upscope $end
$scope begin genblk1[133] $end
$upscope $end
$scope begin genblk1[134] $end
$upscope $end
$scope begin genblk1[135] $end
$upscope $end
$scope begin genblk1[136] $end
$upscope $end
$scope begin genblk1[137] $end
$upscope $end
$scope begin genblk1[138] $end
$upscope $end
$scope begin genblk1[139] $end
$upscope $end
$scope begin genblk1[140] $end
$upscope $end
$scope begin genblk1[141] $end
$upscope $end
$scope begin genblk1[142] $end
$upscope $end
$scope begin genblk1[143] $end
$upscope $end
$scope begin genblk1[144] $end
$upscope $end
$scope begin genblk1[145] $end
$upscope $end
$scope begin genblk1[146] $end
$upscope $end
$scope begin genblk1[147] $end
$upscope $end
$scope begin genblk1[148] $end
$upscope $end
$scope begin genblk1[149] $end
$upscope $end
$scope begin genblk1[150] $end
$upscope $end
$scope begin genblk1[151] $end
$upscope $end
$scope begin genblk1[152] $end
$upscope $end
$scope begin genblk1[153] $end
$upscope $end
$scope begin genblk1[154] $end
$upscope $end
$scope begin genblk1[155] $end
$upscope $end
$scope begin genblk1[156] $end
$upscope $end
$scope begin genblk1[157] $end
$upscope $end
$scope begin genblk1[158] $end
$upscope $end
$scope begin genblk1[159] $end
$upscope $end
$scope begin genblk1[160] $end
$upscope $end
$scope begin genblk1[161] $end
$upscope $end
$scope begin genblk1[162] $end
$upscope $end
$scope begin genblk1[163] $end
$upscope $end
$scope begin genblk1[164] $end
$upscope $end
$scope begin genblk1[165] $end
$upscope $end
$scope begin genblk1[166] $end
$upscope $end
$scope begin genblk1[167] $end
$upscope $end
$scope begin genblk1[168] $end
$upscope $end
$scope begin genblk1[169] $end
$upscope $end
$scope begin genblk1[170] $end
$upscope $end
$scope begin genblk1[171] $end
$upscope $end
$scope begin genblk1[172] $end
$upscope $end
$scope begin genblk1[173] $end
$upscope $end
$scope begin genblk1[174] $end
$upscope $end
$scope begin genblk1[175] $end
$upscope $end
$scope begin genblk1[176] $end
$upscope $end
$scope begin genblk1[177] $end
$upscope $end
$scope begin genblk1[178] $end
$upscope $end
$scope begin genblk1[179] $end
$upscope $end
$scope begin genblk1[180] $end
$upscope $end
$scope begin genblk1[181] $end
$upscope $end
$scope begin genblk1[182] $end
$upscope $end
$scope begin genblk1[183] $end
$upscope $end
$scope begin genblk1[184] $end
$upscope $end
$scope begin genblk1[185] $end
$upscope $end
$scope begin genblk1[186] $end
$upscope $end
$scope begin genblk1[187] $end
$upscope $end
$scope begin genblk1[188] $end
$upscope $end
$scope begin genblk1[189] $end
$upscope $end
$scope begin genblk1[190] $end
$upscope $end
$scope begin genblk1[191] $end
$upscope $end
$scope begin genblk1[192] $end
$upscope $end
$scope begin genblk1[193] $end
$upscope $end
$scope begin genblk1[194] $end
$upscope $end
$scope begin genblk1[195] $end
$upscope $end
$scope begin genblk1[196] $end
$upscope $end
$scope begin genblk1[197] $end
$upscope $end
$scope begin genblk1[198] $end
$upscope $end
$scope begin genblk1[199] $end
$upscope $end
$scope begin genblk1[200] $end
$upscope $end
$scope begin genblk1[201] $end
$upscope $end
$scope begin genblk1[202] $end
$upscope $end
$scope begin genblk1[203] $end
$upscope $end
$scope begin genblk1[204] $end
$upscope $end
$scope begin genblk1[205] $end
$upscope $end
$scope begin genblk1[206] $end
$upscope $end
$scope begin genblk1[207] $end
$upscope $end
$scope begin genblk1[208] $end
$upscope $end
$scope begin genblk1[209] $end
$upscope $end
$scope begin genblk1[210] $end
$upscope $end
$scope begin genblk1[211] $end
$upscope $end
$scope begin genblk1[212] $end
$upscope $end
$scope begin genblk1[213] $end
$upscope $end
$scope begin genblk1[214] $end
$upscope $end
$scope begin genblk1[215] $end
$upscope $end
$scope begin genblk1[216] $end
$upscope $end
$scope begin genblk1[217] $end
$upscope $end
$scope begin genblk1[218] $end
$upscope $end
$scope begin genblk1[219] $end
$upscope $end
$scope begin genblk1[220] $end
$upscope $end
$scope begin genblk1[221] $end
$upscope $end
$scope begin genblk1[222] $end
$upscope $end
$scope begin genblk1[223] $end
$upscope $end
$scope begin genblk1[224] $end
$upscope $end
$scope begin genblk1[225] $end
$upscope $end
$scope begin genblk1[226] $end
$upscope $end
$scope begin genblk1[227] $end
$upscope $end
$scope begin genblk1[228] $end
$upscope $end
$scope begin genblk1[229] $end
$upscope $end
$scope begin genblk1[230] $end
$upscope $end
$scope begin genblk1[231] $end
$upscope $end
$scope begin genblk1[232] $end
$upscope $end
$scope begin genblk1[233] $end
$upscope $end
$scope begin genblk1[234] $end
$upscope $end
$scope begin genblk1[235] $end
$upscope $end
$scope begin genblk1[236] $end
$upscope $end
$scope begin genblk1[237] $end
$upscope $end
$scope begin genblk1[238] $end
$upscope $end
$scope begin genblk1[239] $end
$upscope $end
$scope begin genblk1[240] $end
$upscope $end
$scope begin genblk1[241] $end
$upscope $end
$scope begin genblk1[242] $end
$upscope $end
$scope begin genblk1[243] $end
$upscope $end
$scope begin genblk1[244] $end
$upscope $end
$scope begin genblk1[245] $end
$upscope $end
$scope begin genblk1[246] $end
$upscope $end
$scope begin genblk1[247] $end
$upscope $end
$scope begin genblk1[248] $end
$upscope $end
$scope begin genblk1[249] $end
$upscope $end
$scope begin genblk1[250] $end
$upscope $end
$scope begin genblk1[251] $end
$upscope $end
$scope begin genblk1[252] $end
$upscope $end
$scope begin genblk1[253] $end
$upscope $end
$scope begin genblk1[254] $end
$upscope $end
$scope begin genblk1[255] $end
$upscope $end
$upscope $end
$scope task send_tm_line $end
$var reg 16 B instruction [15:0] $end
$var integer 32 C j [31:0] $end
$upscope $end
$upscope $end
$enddefinitions $end
#0
$dumpvars
b101111 C
b1111000000000000 B
bx A
x@
x?
x>
bx =
bx <
bx ;
x:
bx 9
bx 8
bx 7
bx 6
x5
bx 4
13
x2
01
10
bx /
1.
b0 -
bx111100000000000011100000110111010010000000110000110100000000000010110000000000001010000100000111100100000010011110000000001001110111100100001110011010010000111001011001001011110010001000011101010010010010110000111000100010010001000000011000000100000001001011000000000011111100000000001110110000000000110111000000000011001100000000001011110000000000101011000000000010011100000000001000110000000000011111000000000001101100000000000101110000000000010011000000000000111100000000000010110000000000000111000000000000000000000000000000000000000000000000000000000000000000000000000000000000000000000000000000000000000000000000000000000000000000000000000000000000000000000000000000000000000000000000000000000000000000000000000000000011110000000000001111000011110000000000000010 ,
b1111111111111111 +
b1111111111111111 *
b110000 )
bx (
b1111000000000000 '
1&
1%
bx111100000000000011100000110111010010000000110000110100000000000010110000000000001010000100000111100100000010011110000000001001110111100100001110011010010000111001011001001011110010001000011101010010010010110000111000100010010001000000011000000100000001001011000000000011111100000000001110110000000000110111000000000011001100000000001011110000000000101011000000000010011100000000001000110000000000011111000000000001101100000000000101110000000000010011000000000000111100000000000010110000000000000111000000000000000000000000000000000000000000000000000000000000000000000000000000000000000000000000000000000000000000000000000000000000000000000000000000000000000000000000000000000000000000000000000000000000000000000000000000000011110000000000001111000011110000000000000010 $
b1111111111111111 #
b1111111111111111 "
0!
$end
#10
b0 4
12
b111100001111 /
b0 6
b0 ;
b0 9
b0 <
0>
0:
0?
05
b0 7
b0 8
b0 =
0@
b10000000000 A
1!
#20
0!
#30
b10000000000 A
1!
#40
0!
#50
b10000000000 A
1!
#60
0!
#70
b10000000000 A
1!
#80
0!
#90
b10000000000 A
1!
#100
0!
0&
#110
b10000000000 A
1!
#120
0!
#130
b10000000000 A
1!
#140
0!
#150
b10000000000 A
1!
#160
0!
#170
b10000000000 A
1!
#180
0!
#190
b10000000000 A
1!
