scheduler/sched_build/dump.vcd
$date
	Thu Aug 15 20:58:19 2024
$end
$version
	Icarus Verilog
$end
$timescale
	100ps
$end
$scope module testbench $end
$var wire 1 ! frame_being_sent $end
$var reg 1 " clk $end
$var reg 1 # core_reading $end
$var reg 16 $ core_ready [15:0] $end
$var reg 16384 % data_frames_in [16383:0] $end
$var reg 1 & prog_loading $end
$var reg 1 ' reset $end
$var integer 32 ( i [31:0] $end
$scope module new_sched $end
$var wire 1 " clk $end
$var wire 1 # core_reading $end
$var wire 16 ) core_ready [15:0] $end
$var wire 16384 * data_frames_in [16383:0] $end
$var wire 16 + exec_mask [15:0] $end
$var wire 1 , flag1 $end
$var wire 1 ! frame_being_sent $end
$var wire 16 - last_mask_w [15:0] $end
$var wire 1 . no_wait_cf $end
$var wire 1 & prog_loading $end
$var wire 1 ' reset $end
$var wire 1 / flag2 $end
$var wire 2 0 fence_w [1:0] $end
$var wire 256 1 cur_frame [255:0] $end
$var reg 1 2 cf $end
$var reg 1 3 core_mask_loading $end
$var reg 2 4 fence [1:0] $end
$var reg 10 5 global_tp [9:0] $end
$var reg 1 6 if_loading $end
$var reg 6 7 if_num [5:0] $end
$var reg 16 8 init_r0_vect [15:0] $end
$var reg 16 9 last_mask [15:0] $end
$var reg 16 : mess_to_core [15:0] $end
$var reg 6 ; next_if_num [5:0] $end
$var reg 1 < no_collision $end
$var reg 1 = r0_loading $end
$var reg 1 > r0_mask_loading $end
$var reg 1 ? rel_stop $end
$var reg 1 @ wait_it $end
$var reg 1 A wait_not $end
$var integer 32 B j [31:0] $end
$scope begin genblk1[0] $end
$upscope $end
$scope begin genblk1[1] $end
$upscope $end
$scope begin genblk1[2] $end
$upscope $end
$scope begin genblk2[0] $end
$upscope $end
$scope begin genblk2[1] $end
$upscope $end
$scope begin genblk2[2] $end
$upscope $end
$scope begin genblk2[3] $end
$upscope $end
$scope begin genblk2[4] $end
$upscope $end
$scope begin genblk2[5] $end
$upscope $end
$scope begin genblk2[6] $end
$upscope $end
$scope begin genblk2[7] $end
$upscope $end
$upscope $end
$scope task send_tm_line $end
$var reg 16 C instruction [15:0] $end
$var integer 32 D j [31:0] $end
$upscope $end
$upscope $end
$enddefinitions $end
#0
$dumpvars
bx D
bx C
bx B
xA
x@
x?
x>
x=
x<
bx ;
bx :
bx 9
bx 8
bx 7
x6
bx 5
bx 4
x3
x2
b0xxxxxxxxxxxxxxxx 1
bx 0
1/
1.
bx -
1,
b0 +
bx *
b1111111111111111 )
bx (
1'
1&
bx %
b1111111111111111 $
1#
0"
z!
$end
#10
b0 4
b0 9
b0 8
b0 :
0?
0<
1A
b0 5
b0 7
b0 ;
12
0@
b10000000000 B
1"
#20
0"
#30
b10000000000 B
1"
#40
0"
#50
b10000000000 B
1"
#60
0"
#70
b10000000000 B
1"
#80
0"
#90
b10000000000 B
1"
#100
0"
0'
#110
1?
1<
b10000000000 B
1"
#120
0"
#130
b10000000000 B
1"
#140
0"
#150
b10000000000 B
1"
#160
0"
#170
b10000000000 B
1"
#180
0"
#190
b10000000000 B
1"
#200
0"
b10000000000 (
b11001000001101100011110110000100100011110101111111101100001001110100001010110000100101110111101000010100010000000000111110100110001000101100000111010110000100101110111100100101100100110111110011101011001010111011010000011000000100111110010111001010000000100011010000010011000100010100010110011110000011010000010111000011100011000011011111000111011111101010001010110110100101110110100110000110110100001000001100100101001100110010010011000001101111111010100111110011001101011110111001010110010101001110101000111100100101011101010010100001110110100010010110011011010100101111010111000100101110001001100000100111101001100101101101001000011000111101100000101001111011011010100011101001001001110010101110011010010111101110111001101100001100110000110001001100001111111110111111011100100111101110011010101110000101011110001011001111111111011110101000111111001000111011000100010111011101100011010101110001000111001011011000000111110011100001001110110000101110111000110011111100011010010100111110110010001100111101001110111011100100000001111100110101110011110101010101110001001010110111111100111000000000111000011101011010000011101111010011011111010011000100100101010010001011001100010100010100101101011111000101111001011110111000100110111011110111000010111111001011101011110110101110100101010001000111100101101101111010000100100010101001010101111011000000001000100010010100001101101001001110001000001010010011111000000111011010111010001111001101110010111000010010010111000100101110000010111010001000011010110101111100111111111111010000110011011101100011111010011011000110100110100010010000010001011011100100100000001100000100110110101001111111111011110010000000101011110010100010010101011001100100110100100011010010111100100100001101010001111100111011000000110011010110010001101011001101010000010011100110111000100110101100010101000000111110110100001001111010101101111011101111011000100111110010110010110001000011101101100111111110001010011000010011001101111101001000111000101011101111100010101101111011101101101011011101001100101011111110111001001010000010011011010110100001100101110011010101101100001010000001001111111111000011000100010010001010101110110011111111000110000000010010111000010000010010101110101011110101111111100110000110101111000101001010011101111011111110010101101000011011100100000000010110111101010110000011101011110010010001111101111001110010100001001001111000100101000101110011010101001011010001111110011000110101100110011000110000001011110010010001110100001011111101001000011110111101101101100001000000011001111000010011011100010010100011001100010011011100001001110010100010110111110011111011000110101011101001010001110100110000100110011010110101011100001011110001001010000000111110101010011101001000010110011110110111100100000010110010011001100110100100101100000011100001111010101111010111001011110011111110100111000110001100110001010110000101000001011001011011000011101111000110000010101111100000010000011101010000101101000101001111100111011111011011010001011100101110111111000001001000001011101111101000000100010010000011110010000000111110011101110101101110111101111110011111011010010000010011110101001110010111000011101000011101010101111001010110000110100111101001101100010010100000101100110100111110101011011110010100000000101110010111001011110111001101010101010010000101100100001111011000011110100001000110000110001101110111000100000110001010011000110000101110110100111110000010111110110101001110110000110111010011010111100011100110111101010110000011101010010101000100110010101101011111001111111000111100100011011100111001010010001111000011001000010000000101101110000000010101000011100100000110000101111110101011011111011001011110001110100100100110101010001101101010010100001010000001011000001110101000001000010011001110000111001000011010000111011011010101101111011101010001010000001000011011111101101110100100001001000010001011000111110101111100111001100010100000100100110011000111101111011100100101001101001000100001011100111000111010111010101101011011001000110010011001011111000011010010011100010000011110001110011011011100110111101110110110000110110000110001010100010011000000101000000010100011010101001000110110010100000001110100000000010011000101010110101100001101110111110000110011000000000100100011100000110001111010000110101100000010011100001101000100101101010110101111101010010010100001110011110101011111100011111001100000011111010100111001101010100001100100011111100000001111010000111110010100000000111101011101000011000011001100000010001111011100110100100000111001010111011100110101010101011000010111110011011111001011001111000011001001000110100011100110000000010110110010010111010010111001101111011000010101110000111000010110000110001101001100101111010011101011000001001100001001101011000100001100101100100110110101000110111010100110000001010010101010110110000101000011011000001111101111110001011101111100011010111010101111111011000010011111001100001101001101100010111011111110000000001100010111111100011010000100110100010010110111000000011010001001101100000011100001110100001101001110100000001110001111101101110011111101100111101111111000110110000000110000010100110111010010100110010111010110001010101000100011101100110001111001100011101011000111000100001100000101000111011100110100010100111100011000111000001110000001001101011110100111011100010111010100011010110011001000001000000010110101101001101011010011001010101011000011110110101111111110001010001111001011101000100100111011101101010010000111101011000001001100000101010111000101110110100011011100001000011011110010001111111110111100001001110001001101111000110010001000001011100110010111000000111011001010101011101100000101101010111011100100001010000111100100000011001100101000101100110110101001010101011101000010000001001111110110000010110110010101110100111110100000001101001000011011100011011010101101010111110011110001001000100101110000010110100000101000101011010100101100011011011100110110111110101101100010010000001111110010101110011111100001110011111010111111110111000011000011101110100101100011000011001110100110110010110101011100001100000011000110101101000110101010011001101100010100011001000110000101000010011010010001010000011001000011010111000110101111000100001011000101100011000000111100111000111000111110001100111010010110001101000110010000101010100100000111111101110010010001111111000010001110001011101001111000110110001000010001010110110111011000011001010110111111011001110100000001111110101011011001111011100110000101000111001010010101011010111101001001000011100100000111100111011001101000110011100010011011100000010110010000101001100011111100010100010111011011101101110111010001010101101111001001001101100100000001110000101101000110000001101111101010011100100111100000100010111000011001011011110010100110011010100001001010010100110011000101110110101111111101010010111011110101001111110100110101101010101000010110100101010000001011011100000000001000001100000101000110111100110110000010100111111001001011010001000001110000101101100000110100000011001001011010011001000000101111010111101110010000010011001010101111110101000010011001000000110001111010001000111010101111010100111000110110110010000010000101000110111000001010010000001001000011010011101111100100000101101111100001010110010011000000100111101000111001111100010000110011100010011101011011111111110100110000001011001101101111101110011101110001011001011000011101010010011000110011100000001100001100100101000111001111101110000011100100011010111011000001011100100010101011011110011001101100100011110011100101110010001001111101101000010001111000010110000010010111110100011110110101111001010000010001111101110011011110011010100011110110111101001000001010001011010100000001101001111101110000111010001100110100011100110110111101000110101111110011000100000100000000110010010110101111101101101000111110010101011111010110010100010001111101110111010010101001101010111001000000011101100010001110100111000100001000001110100001000010011001001110101011011100100111010100010100000101100101001101010001001100101101000100110000110110111001100110110100101000111100101011111101000001011011101100011110111111100110101010010100110100111100110111001110001010010101100011101011110001111101010010001111000111000011000011110000000010101010011100011111000011010101011010001011100111010101111101011000000100010101011011100101001001110111101011101110000100110111001010010111110101100100111010100010100001011110111001010100110101100000001111101110111001111100100101010011011111100001011101101110111110101100000001101010111111111000011011101110100110111001101011111101101001100110111001001010111111111010001100001101101011000101100111111100001001000010100000001000101111011011010111110000000110001011100010111010110111101001100101110111011010000111000001111111010111010100110001111011010101010011011101110101101000110000111011101000011011110010101101111011000110111000100110101100010001001101100110110101100011011000011001010100101011001101011101111010010001101001110110000101000111100101100100000011010111001111010010011100010100011001010110010110001000001100110101100110100101001100000011110111110000000000110100111011101101110111101001101000011111011011001010011001011111101010011011101001011011010000100010010101100100000000010100100001110000010010011111110011100110101000001010111010100110000100100111010011101000101110010111011111100011001000100000100010101001100001111000110110111110010011010011000001110010110111001000000001101011011001101111110100100100111001100000100010010110110000010000011001110101100101011001110001010011010100011100101101111100000100001110010110010111001001111011111010010000000101001000110101101111101100100000010111001110011110010010111111111111101000111110010001000101000000011010101011011100000111010001011000110001010000001011001110010111010000100010101011010001111010001110011001011110000110011101010100011100110000010111000000001101001011110000000011110110110000000101000111110001001001000001001010001010000011001100100001111000100101111111101010011001100000100010110100110110111010000000100110000000001111011111001011110010101010010101111000010001100001011010101100000100010111011111011001000010010010100011001111110101000110111001111000010011000100010100101011011110001101010110111111100000010101010100100111100011101101001101001110000010111100100101011001111101000100001111011011000101000011000111010010100111100011100110100000001101110011100011111101001001111011011001001111110111011010100111100100001001111001100110010100101111110000000011011111010111011101100011001011010000001001011100100001001010100000001110100010000011110111010101010101100001011100110011101001111011000010111101111110010110110110011111000011101111100110011100010101110100001100011110110010110000100111000001111110001001011010101000101000110110011101110000011100101100100101000001001000011011100011110010011110111001000011100111010001011101001110111000010011010100010101110100110110001010010011001010101000011100111100011010101011000001110001001110010101111101110100001100011100000000011010110001011010100111110110011101100010100010010001010000001001011100111000001000011111000000001101100001101010101001101111111100100110100000111100111111100001010001110010010000100111110000000101100000110010000001000101010001011111101011011101001010100101111010100001101100010101000100001111110010011011101111011011010101100100100110010000101110011010011011100111111001001010011111111111100001000010001000100111000000111010110100011011111101010010101100101011100011101110110111010101010101011110001010110001011100001001011010110100000100101001001100010100100000001001011000100011010110000011101000000100011011100001111111111001101000010101010100100111100001011100100001011101100000010000111100101011110111001010000110110110111001010001001000111001010001001011100001001101000100101011010011011000000000110111001111100010000001001111101011100010001000100101101101100010010101101110100101010011111110011101100001100100001110110010010001000001000111001000011000011011110100011001110100011000111111011110110000000101000011011111011000011110101100001100001001011111010010111110000000101101110111110010100001000101100100101000000110011011101101001010111011100111100010001011111101101011010101101000111101001000011101011110010100110110001111011100100110010000111011110001111000001011011010101111101110101001100011100000111100000000000011110000000000000000100011111010100010100001011110011010100111001111110010101010010011100100110011011000010001011110101111010010000100110010100101001111001011110101111110101001000010000110001110110111111110011010101101001101001110010010100101011011100110101011110001001001110110111010110111011011011010101110110001111100100101101011010000010001001101000101110010101110001111001000101010000111100111100110001110001111111110011110111101001000110100011101001010101011010100101010110000001001111101100110111001101011100100001110100011001010000111111101101010011000000010101000110100010100111000010110100010101110011011101100010000100111001101111011010010111011010010011000011101001100010101110101110000011000101000101001100010000011010101011001111101011001011001010000100100011000011001111000101000010000100100010111111011100110000111100100111110100010101101111001101101101100111110000000110110111001101101111110111111110111100001010111100001100000111111011100100000110111110100011010101101101001111100100110001000011100000000110111100101100110000100110111000000001011100111110110000110100000010111010101011110011111101010110011010111101001100110111010000001000111001111000100011100001010011101100110110001100011110100001000110110100110011110000110100100000001110000000111001010011010011011111101010001010001110011100100000010001001110000101110001100001100011100000100001011011101100100101000100011011000100010111010101101000000011101101001011000011111011110011011000001000001101001000110011100011001010100101101101101100100100111001010111000100111011000100110011011011011011111011001110111100100110101101001110110111100101001011001001011000000010001011101100100111011111110010100110001001011100010000111011110011000101000111000101110011011011000110100000010100111011001100111111010010100111011101101010101100000001011000011011100101111110110111100100110101010110111011100110011110000111010101101101010110000101100101010000011001101000011111111010001000001100101111001100101001101111111100010101101011011011001100101011011001101101000000000111100000000000011110000000000000000011111100010111011011100000100101001110110110101101000011010111001100011011011001011111111011111011100001101010001000101011001011111100100101011001110101000001011111011010010100011000101110111001110111100001001101001100111111010111100101001110000001100100011100011100010000110011000110101100010101111001010101010111000111111010010110100100101011001010110111000100001111000001011111000010111110110110100111000111100011111111001110011100110000001011011010000000001111110110110110001001011101101001111010101101001110111111011011100100011001110110000100111111100001100001011111001011011111100010100011100000011010111001111101101000000110010010010010011011110001001110000000101101110010100010111000101011010011111011000001011011110101001111110001010000110001111010101011001111111111011010011000000011101100010010010111101100110011011111100010100101100010101001100100111111000110011001110100110000000111011010101010100111101000001100001011011111001110001100110100000101111011101001010100000000011110000000000001111000000000000000000110000001010111100000100111010111011111001110001100110010110110110000011011110101100010010100010011111001101111000001101001101100010110011010000010110000110001010101111011111001001001100001111000000101011001010011001010000101001001001001000110111001011001111111010010001110100111110101011100100101000000010001010101101010111011101011010111101011001010011001110000000110110111000000100110011111010010110110011001001110101000101101010100010000100100000001000101000000010000111000010100110001001100011001001100110010101011000001011010010100010111101010010010101110001001110110001010111101011101000100101101100111001101001111100101101101110001111110101100001001001110010011101111111011111100101110100101010101010000100110001010010010011000110111010011111100111110111100011000101011111101101110011010011110111110001011101101100110100001101111000110000000101010010000100101000010001100101100110011000110101111011000011010101011001100011110101100000100101011110100000010011010100100100000000000000111100000000000011110000000001000011 %
b11001000001101100011110110000100100011110101111111101100001001110100001010110000100101110111101000010100010000000000111110100110001000101100000111010110000100101110111100100101100100110111110011101011001010111011010000011000000100111110010111001010000000100011010000010011000100010100010110011110000011010000010111000011100011000011011111000111011111101010001010110110100101110110100110000110110100001000001100100101001100110010010011000001101111111010100111110011001101011110111001010110010101001110101000111100100101011101010010100001110110100010010110011011010100101111010111000100101110001001100000100111101001100101101101001000011000111101100000101001111011011010100011101001001001110010101110011010010111101110111001101100001100110000110001001100001111111110111111011100100111101110011010101110000101011110001011001111111111011110101000111111001000111011000100010111011101100011010101110001000111001011011000000111110011100001001110110000101110111000110011111100011010010100111110110010001100111101001110111011100100000001111100110101110011110101010101110001001010110111111100111000000000111000011101011010000011101111010011011111010011000100100101010010001011001100010100010100101101011111000101111001011110111000100110111011110111000010111111001011101011110110101110100101010001000111100101101101111010000100100010101001010101111011000000001000100010010100001101101001001110001000001010010011111000000111011010111010001111001101110010111000010010010111000100101110000010111010001000011010110101111100111111111111010000110011011101100011111010011011000110100110100010010000010001011011100100100000001100000100110110101001111111111011110010000000101011110010100010010101011001100100110100100011010010111100100100001101010001111100111011000000110011010110010001101011001101010000010011100110111000100110101100010101000000111110110100001001111010101101111011101111011000100111110010110010110001000011101101100111111110001010011000010011001101111101001000111000101011101111100010101101111011101101101011011101001100101011111110111001001010000010011011010110100001100101110011010101101100001010000001001111111111000011000100010010001010101110110011111111000110000000010010111000010000010010101110101011110101111111100110000110101111000101001010011101111011111110010101101000011011100100000000010110111101010110000011101011110010010001111101111001110010100001001001111000100101000101110011010101001011010001111110011000110101100110011000110000001011110010010001110100001011111101001000011110111101101101100001000000011001111000010011011100010010100011001100010011011100001001110010100010110111110011111011000110101011101001010001110100110000100110011010110101011100001011110001001010000000111110101010011101001000010110011110110111100100000010110010011001100110100100101100000011100001111010101111010111001011110011111110100111000110001100110001010110000101000001011001011011000011101111000110000010101111100000010000011101010000101101000101001111100111011111011011010001011100101110111111000001001000001011101111101000000100010010000011110010000000111110011101110101101110111101111110011111011010010000010011110101001110010111000011101000011101010101111001010110000110100111101001101100010010100000101100110100111110101011011110010100000000101110010111001011110111001101010101010010000101100100001111011000011110100001000110000110001101110111000100000110001010011000110000101110110100111110000010111110110101001110110000110111010011010111100011100110111101010110000011101010010101000100110010101101011111001111111000111100100011011100111001010010001111000011001000010000000101101110000000010101000011100100000110000101111110101011011111011001011110001110100100100110101010001101101010010100001010000001011000001110101000001000010011001110000111001000011010000111011011010101101111011101010001010000001000011011111101101110100100001001000010001011000111110101111100111001100010100000100100110011000111101111011100100101001101001000100001011100111000111010111010101101011011001000110010011001011111000011010010011100010000011110001110011011011100110111101110110110000110110000110001010100010011000000101000000010100011010101001000110110010100000001110100000000010011000101010110101100001101110111110000110011000000000100100011100000110001111010000110101100000010011100001101000100101101010110101111101010010010100001110011110101011111100011111001100000011111010100111001101010100001100100011111100000001111010000111110010100000000111101011101000011000011001100000010001111011100110100100000111001010111011100110101010101011000010111110011011111001011001111000011001001000110100011100110000000010110110010010111010010111001101111011000010101110000111000010110000110001101001100101111010011101011000001001100001001101011000100001100101100100110110101000110111010100110000001010010101010110110000101000011011000001111101111110001011101111100011010111010101111111011000010011111001100001101001101100010111011111110000000001100010111111100011010000100110100010010110111000000011010001001101100000011100001110100001101001110100000001110001111101101110011111101100111101111111000110110000000110000010100110111010010100110010111010110001010101000100011101100110001111001100011101011000111000100001100000101000111011100110100010100111100011000111000001110000001001101011110100111011100010111010100011010110011001000001000000010110101101001101011010011001010101011000011110110101111111110001010001111001011101000100100111011101101010010000111101011000001001100000101010111000101110110100011011100001000011011110010001111111110111100001001110001001101111000110010001000001011100110010111000000111011001010101011101100000101101010111011100100001010000111100100000011001100101000101100110110101001010101011101000010000001001111110110000010110110010101110100111110100000001101001000011011100011011010101101010111110011110001001000100101110000010110100000101000101011010100101100011011011100110110111110101101100010010000001111110010101110011111100001110011111010111111110111000011000011101110100101100011000011001110100110110010110101011100001100000011000110101101000110101010011001101100010100011001000110000101000010011010010001010000011001000011010111000110101111000100001011000101100011000000111100111000111000111110001100111010010110001101000110010000101010100100000111111101110010010001111111000010001110001011101001111000110110001000010001010110110111011000011001010110111111011001110100000001111110101011011001111011100110000101000111001010010101011010111101001001000011100100000111100111011001101000110011100010011011100000010110010000101001100011111100010100010111011011101101110111010001010101101111001001001101100100000001110000101101000110000001101111101010011100100111100000100010111000011001011011110010100110011010100001001010010100110011000101110110101111111101010010111011110101001111110100110101101010101000010110100101010000001011011100000000001000001100000101000110111100110110000010100111111001001011010001000001110000101101100000110100000011001001011010011001000000101111010111101110010000010011001010101111110101000010011001000000110001111010001000111010101111010100111000110110110010000010000101000110111000001010010000001001000011010011101111100100000101101111100001010110010011000000100111101000111001111100010000110011100010011101011011111111110100110000001011001101101111101110011101110001011001011000011101010010011000110011100000001100001100100101000111001111101110000011100100011010111011000001011100100010101011011110011001101100100011110011100101110010001001111101101000010001111000010110000010010111110100011110110101111001010000010001111101110011011110011010100011110110111101001000001010001011010100000001101001111101110000111010001100110100011100110110111101000110101111110011000100000100000000110010010110101111101101101000111110010101011111010110010100010001111101110111010010101001101010111001000000011101100010001110100111000100001000001110100001000010011001001110101011011100100111010100010100000101100101001101010001001100101101000100110000110110111001100110110100101000111100101011111101000001011011101100011110111111100110101010010100110100111100110111001110001010010101100011101011110001111101010010001111000111000011000011110000000010101010011100011111000011010101011010001011100111010101111101011000000100010101011011100101001001110111101011101110000100110111001010010111110101100100111010100010100001011110111001010100110101100000001111101110111001111100100101010011011111100001011101101110111110101100000001101010111111111000011011101110100110111001101011111101101001100110111001001010111111111010001100001101101011000101100111111100001001000010100000001000101111011011010111110000000110001011100010111010110111101001100101110111011010000111000001111111010111010100110001111011010101010011011101110101101000110000111011101000011011110010101101111011000110111000100110101100010001001101100110110101100011011000011001010100101011001101011101111010010001101001110110000101000111100101100100000011010111001111010010011100010100011001010110010110001000001100110101100110100101001100000011110111110000000000110100111011101101110111101001101000011111011011001010011001011111101010011011101001011011010000100010010101100100000000010100100001110000010010011111110011100110101000001010111010100110000100100111010011101000101110010111011111100011001000100000100010101001100001111000110110111110010011010011000001110010110111001000000001101011011001101111110100100100111001100000100010010110110000010000011001110101100101011001110001010011010100011100101101111100000100001110010110010111001001111011111010010000000101001000110101101111101100100000010111001110011110010010111111111111101000111110010001000101000000011010101011011100000111010001011000110001010000001011001110010111010000100010101011010001111010001110011001011110000110011101010100011100110000010111000000001101001011110000000011110110110000000101000111110001001001000001001010001010000011001100100001111000100101111111101010011001100000100010110100110110111010000000100110000000001111011111001011110010101010010101111000010001100001011010101100000100010111011111011001000010010010100011001111110101000110111001111000010011000100010100101011011110001101010110111111100000010101010100100111100011101101001101001110000010111100100101011001111101000100001111011011000101000011000111010010100111100011100110100000001101110011100011111101001001111011011001001111110111011010100111100100001001111001100110010100101111110000000011011111010111011101100011001011010000001001011100100001001010100000001110100010000011110111010101010101100001011100110011101001111011000010111101111110010110110110011111000011101111100110011100010101110100001100011110110010110000100111000001111110001001011010101000101000110110011101110000011100101100100101000001001000011011100011110010011110111001000011100111010001011101001110111000010011010100010101110100110110001010010011001010101000011100111100011010101011000001110001001110010101111101110100001100011100000000011010110001011010100111110110011101100010100010010001010000001001011100111000001000011111000000001101100001101010101001101111111100100110100000111100111111100001010001110010010000100111110000000101100000110010000001000101010001011111101011011101001010100101111010100001101100010101000100001111110010011011101111011011010101100100100110010000101110011010011011100111111001001010011111111111100001000010001000100111000000111010110100011011111101010010101100101011100011101110110111010101010101011110001010110001011100001001011010110100000100101001001100010100100000001001011000100011010110000011101000000100011011100001111111111001101000010101010100100111100001011100100001011101100000010000111100101011110111001010000110110110111001010001001000111001010001001011100001001101000100101011010011011000000000110111001111100010000001001111101011100010001000100101101101100010010101101110100101010011111110011101100001100100001110110010010001000001000111001000011000011011110100011001110100011000111111011110110000000101000011011111011000011110101100001100001001011111010010111110000000101101110111110010100001000101100100101000000110011011101101001010111011100111100010001011111101101011010101101000111101001000011101011110010100110110001111011100100110010000111011110001111000001011011010101111101110101001100011100000111100000000000011110000000000000000100011111010100010100001011110011010100111001111110010101010010011100100110011011000010001011110101111010010000100110010100101001111001011110101111110101001000010000110001110110111111110011010101101001101001110010010100101011011100110101011110001001001110110111010110111011011011010101110110001111100100101101011010000010001001101000101110010101110001111001000101010000111100111100110001110001111111110011110111101001000110100011101001010101011010100101010110000001001111101100110111001101011100100001110100011001010000111111101101010011000000010101000110100010100111000010110100010101110011011101100010000100111001101111011010010111011010010011000011101001100010101110101110000011000101000101001100010000011010101011001111101011001011001010000100100011000011001111000101000010000100100010111111011100110000111100100111110100010101101111001101101101100111110000000110110111001101101111110111111110111100001010111100001100000111111011100100000110111110100011010101101101001111100100110001000011100000000110111100101100110000100110111000000001011100111110110000110100000010111010101011110011111101010110011010111101001100110111010000001000111001111000100011100001010011101100110110001100011110100001000110110100110011110000110100100000001110000000111001010011010011011111101010001010001110011100100000010001001110000101110001100001100011100000100001011011101100100101000100011011000100010111010101101000000011101101001011000011111011110011011000001000001101001000110011100011001010100101101101101100100100111001010111000100111011000100110011011011011011111011001110111100100110101101001110110111100101001011001001011000000010001011101100100111011111110010100110001001011100010000111011110011000101000111000101110011011011000110100000010100111011001100111111010010100111011101101010101100000001011000011011100101111110110111100100110101010110111011100110011110000111010101101101010110000101100101010000011001101000011111111010001000001100101111001100101001101111111100010101101011011011001100101011011001101101000000000111100000000000011110000000000000000011111100010111011011100000100101001110110110101101000011010111001100011011011001011111111011111011100001101010001000101011001011111100100101011001110101000001011111011010010100011000101110111001110111100001001101001100111111010111100101001110000001100100011100011100010000110011000110101100010101111001010101010111000111111010010110100100101011001010110111000100001111000001011111000010111110110110100111000111100011111111001110011100110000001011011010000000001111110110110110001001011101101001111010101101001110111111011011100100011001110110000100111111100001100001011111001011011111100010100011100000011010111001111101101000000110010010010010011011110001001110000000101101110010100010111000101011010011111011000001011011110101001111110001010000110001111010101011001111111111011010011000000011101100010010010111101100110011011111100010100101100010101001100100111111000110011001110100110000000111011010101010100111101000001100001011011111001110001100110100000101111011101001010100000000011110000000000001111000000000000000000110000001010111100000100111010111011111001110001100110010110110110000011011110101100010010100010011111001101111000001101001101100010110011010000010110000110001010101111011111001001001100001111000000101011001010011001010000101001001001001000110111001011001111111010010001110100111110101011100100101000000010001010101101010111011101011010111101011001010011001110000000110110111000000100110011111010010110110011001001110101000101101010100010000100100000001000101000000010000111000010100110001001100011001001100110010101011000001011010010100010111101010010010101110001001110110001010111101011101000100101101100111001101001111100101101101110001111110101100001001001110010011101111111011111100101110100101010101010000100110001010010010011000110111010011111100111110111100011000101011111101101110011010011110111110001011101101100110100001101111000110000000101010010000100101000010001100101100110011000110101111011000011010101011001100011110101100000100101011110100000010011010100100100000000000000111100000000000011110000000001000011 *
#210
b1 0
b1111 -
b1000011 1
b10000000000 B
1"
#220
0"
#230
b10000000000 B
1"
#240
0"
#250
b10000000000 B
1"
#260
0"
#270
b10000000000 B
1"
#280
0"
#290
b10000000000 B
1"
#300
0"
0&
#310
b0 0
b11 ;
b1111 1
b1 5
b1111 8
b1111 9
b1 4
1"
#320
0"
#330
b1111 :
b11010100100100 -
b10 5
1@
1"
#340
0"
#350
b10 0
b1001100110001101 1
b1000010001100101 -
b1000 5
1"
#360
0"
#370
b1 0
bx :
b1000010001100101 1
b101001000010010 -
b1001 5
1"
#380
0"
#390
b0 0
b101001000010010 1
b1110001100000001 -
b1010 5
1"
#400
0"
#410
b1110001100000001 1
b1100110100001101 -
b1011 5
1"
#420
0"
#430
b1100110100001101 1
b1111000101110110 -
b1100 5
1"
#440
0"
#450
b1 0
b1111000101110110 1
b1100110100111101 -
b1101 5
1"
#460
0"
#470
b0 0
b1100110100111101 1
b101011111101101 -
b1110 5
1"
#480
0"
#490
b11 0
b101011111101101 1
b1111011110001100 -
b1111 5
1"
#500
0.
0,
b1111 +
0"
b1111111111110000 $
b1111111111110000 )
#510
b10 0
b11 7
b1111011110001100 1
b1110100111111001 -
b10000 5
0<
1"
#520
0"
#530
b11 0
b1101101110001111 :
b1110100111111001 1
b10010011000110 -
b10001 5
1"
#540
0"
#550
b10010011000110 1
b1000010011000101 -
b10010 5
b1001011011001110 :
1"
#560
0"
#570
b100111011000101 :
b1000010011000101 1
b1101001010101010 -
b10011 5
1"
#580
0"
#590
b10 0
b1101001010101010 1
b1111011111100101 -
b10100 5
b10100010111101 :
1"
#600
0"
#610
b11 0
b10011001100101 :
b1111011111100101 1
b111001001110111 -
b10101 5
1"
#620
0"
#630
b1 0
b111001001110111 1
b1101011000010010 -
b10110 5
b1000011100001010 :
1"
#640
0"
#650
b0 0
b10000100100000 :
b1101011000010010 1
b1101101110001111 -
b10111 5
1"
#660
0"
#670
b10 0
b1101101110001111 1
b110100111110010 -
b11000 5
b1100110010011101 :
1"
#680
0"
#690
b11 0
bx :
b110100111110010 1
b1001011011001110 -
b11001 5
1"
#700
0"
#710
b1001011011001110 1
b111101011101000 -
b11010 5
1"
#720
0"
#730
b111101011101000 1
b100111011000101 -
b11011 5
1"
#740
0"
#750
b100111011000101 1
b100100101011100 -
b11100 5
1"
#760
0"
#770
b1 0
b100100101011100 1
b10100010111101 -
b11101 5
1"
#780
0"
#790
b10 0
b10100010111101 1
b101100000101101 -
b11110 5
1"
#800
0"
#810
b0 0
b101100000101101 1
b10011001100101 -
b11111 5
1"
#820
0"
#830
b1 0
b10 7
b10011001100101 1
b110001001100011 -
b100000 5
1"
#840
0"
#850
b1011100000010011 :
b110001001100011 1
b1000011100001010 -
b100001 5
1"
#860
0"
#870
b0 0
b1000011100001010 1
b10001010000000 -
b100010 5
b1101011001010011 :
1"
#880
0"
#890
b10 0
b10101011010101 :
b10001010000000 1
b10000100100000 -
b100011 5
1"
#900
0"
#910
b0 0
b10000100100000 1
b100010110101010 -
b100100 5
b11111010101110 :
1"
#920
0"
#930
b10 0
b111001011001111 :
b100010110101010 1
b1100110010011101 -
b100101 5
1"
#940
0"
#950
b1100110010011101 1
b11111010010110 -
b100110 5
b110010100001010 :
1"
#960
0"
#970
b100110000111100 :
b11111010010110 1
b1011100000010011 -
b100111 5
1"
#980
0"
#990
b0 0
b1011100000010011 1
b11100000001101 -
b101000 5
b110000110001010 :
1"
#1000
0"
#1010
bx :
b11100000001101 1
b1101011001010011 -
b101001 5
1"
#1020
0"
#1030
b1 0
b1101011001010011 1
b1101110101101011 -
b101010 5
1"
#1040
0"
#1050
b1101110101101011 1
b10101011010101 -
b101011 5
1"
#1060
0"
#1070
b11 0
b10101011010101 1
b100101000000010 -
b101100 5
1"
#1080
0"
#1090
b0 0
b100101000000010 1
b11111010101110 -
b101101 5
1"
#1100
0"
#1110
b10 0
b11111010101110 1
b1110100100011101 -
b101110 5
1"
#1120
0"
#1130
b0 0
b1110100100011101 1
b111001011001111 -
b101111 5
1"
#1140
0"
#1150
b11 0
b1 7
b111001011001111 1
b100100100100011 -
b110000 5
1"
#1160
0"
#1170
b0 0
b11010011011000 :
b100100100100011 1
b110010100001010 -
b110001 5
1"
#1180
0"
#1190
b110010100001010 1
b101011001010 -
b110010 5
b1001010001001 :
1"
#1200
0"
#1210
b11 0
b110010110110110 :
b101011001010 1
b100110000111100 -
b110011 5
1"
#1220
0"
#1230
b0 0
b100110000111100 1
b1011110111110010 -
b110100 5
b1001110101110 :
1"
#1240
0"
#1250
b11 0
b11 :
b1011110111110010 1
b110000110001010 -
b110101 5
1"
#1260
0"
#1270
b10 0
b110000110001010 1
b1011001101000001 -
b110110 5
b11110000 :
1"
#1280
0"
#1290
b1 0
b1001101000001011 :
b1011001101000001 1
b11010011011000 -
b110111 5
1"
#1300
0"
#1310
b11 0
b11010011011000 1
b1111001101111000 -
b111000 5
b100000110000101 :
1"
