scheduler/sched_build/dump.vcd
$date
	Wed Aug 21 18:50:13 2024
$end
$version
	Icarus Verilog
$end
$timescale
	100ps
$end
$scope module testbench $end
$var reg 1 ! clk $end
$var reg 1 " core_reading $end
$var reg 16 # core_ready [15:0] $end
$var reg 16384 $ data_frames_in [16383:0] $end
$var reg 1 % prog_loading $end
$var reg 1 & reset $end
$var reg 16 ' tm_line [15:0] $end
$var integer 32 ( j [31:0] $end
$scope module scheduler $end
$var wire 1 ! clk $end
$var wire 1 " core_reading $end
$var wire 16 ) core_ready [15:0] $end
$var wire 16384 * data_frames_in [16383:0] $end
$var wire 16 + exec_mask [15:0] $end
$var wire 16 , last_mask_w [15:0] $end
$var wire 1 - no_wait_cf $end
$var wire 1 % prog_loading $end
$var wire 1 & reset $end
$var wire 1 . flag2 $end
$var wire 1 / flag1 $end
$var wire 2 0 fence_w [1:0] $end
$var reg 1 1 core_mask_loading $end
$var reg 2 2 fence [1:0] $end
$var reg 10 3 global_tp [9:0] $end
$var reg 6 4 if_num [5:0] $end
$var reg 16 5 init_r0_vect [15:0] $end
$var reg 16 6 last_mask [15:0] $end
$var reg 16 7 mess_to_core [15:0] $end
$var reg 6 8 next_if_num [5:0] $end
$var reg 1 9 r0_loading $end
$var reg 1 : r0_mask_loading $end
$var reg 1 ; wait_it $end
$var integer 32 < j [31:0] $end
$scope begin genblk1[0] $end
$upscope $end
$scope begin genblk1[1] $end
$upscope $end
$scope begin genblk1[2] $end
$upscope $end
$scope begin genblk1[3] $end
$upscope $end
$scope begin genblk1[4] $end
$upscope $end
$scope begin genblk1[5] $end
$upscope $end
$scope begin genblk1[6] $end
$upscope $end
$scope begin genblk1[7] $end
$upscope $end
$scope begin genblk1[8] $end
$upscope $end
$scope begin genblk1[9] $end
$upscope $end
$scope begin genblk1[10] $end
$upscope $end
$scope begin genblk1[11] $end
$upscope $end
$scope begin genblk1[12] $end
$upscope $end
$scope begin genblk1[13] $end
$upscope $end
$scope begin genblk1[14] $end
$upscope $end
$scope begin genblk1[15] $end
$upscope $end
$scope begin genblk1[16] $end
$upscope $end
$scope begin genblk1[17] $end
$upscope $end
$scope begin genblk1[18] $end
$upscope $end
$scope begin genblk1[19] $end
$upscope $end
$scope begin genblk1[20] $end
$upscope $end
$scope begin genblk1[21] $end
$upscope $end
$scope begin genblk1[22] $end
$upscope $end
$scope begin genblk1[23] $end
$upscope $end
$scope begin genblk1[24] $end
$upscope $end
$scope begin genblk1[25] $end
$upscope $end
$scope begin genblk1[26] $end
$upscope $end
$scope begin genblk1[27] $end
$upscope $end
$scope begin genblk1[28] $end
$upscope $end
$scope begin genblk1[29] $end
$upscope $end
$scope begin genblk1[30] $end
$upscope $end
$scope begin genblk1[31] $end
$upscope $end
$scope begin genblk1[32] $end
$upscope $end
$scope begin genblk1[33] $end
$upscope $end
$scope begin genblk1[34] $end
$upscope $end
$scope begin genblk1[35] $end
$upscope $end
$scope begin genblk1[36] $end
$upscope $end
$scope begin genblk1[37] $end
$upscope $end
$scope begin genblk1[38] $end
$upscope $end
$scope begin genblk1[39] $end
$upscope $end
$scope begin genblk1[40] $end
$upscope $end
$scope begin genblk1[41] $end
$upscope $end
$scope begin genblk1[42] $end
$upscope $end
$scope begin genblk1[43] $end
$upscope $end
$scope begin genblk1[44] $end
$upscope $end
$scope begin genblk1[45] $end
$upscope $end
$scope begin genblk1[46] $end
$upscope $end
$scope begin genblk1[47] $end
$upscope $end
$scope begin genblk1[48] $end
$upscope $end
$scope begin genblk1[49] $end
$upscope $end
$scope begin genblk1[50] $end
$upscope $end
$scope begin genblk1[51] $end
$upscope $end
$scope begin genblk1[52] $end
$upscope $end
$scope begin genblk1[53] $end
$upscope $end
$scope begin genblk1[54] $end
$upscope $end
$scope begin genblk1[55] $end
$upscope $end
$scope begin genblk1[56] $end
$upscope $end
$scope begin genblk1[57] $end
$upscope $end
$scope begin genblk1[58] $end
$upscope $end
$scope begin genblk1[59] $end
$upscope $end
$scope begin genblk1[60] $end
$upscope $end
$scope begin genblk1[61] $end
$upscope $end
$scope begin genblk1[62] $end
$upscope $end
$scope begin genblk1[63] $end
$upscope $end
$scope begin genblk1[64] $end
$upscope $end
$scope begin genblk1[65] $end
$upscope $end
$scope begin genblk1[66] $end
$upscope $end
$scope begin genblk1[67] $end
$upscope $end
$scope begin genblk1[68] $end
$upscope $end
$scope begin genblk1[69] $end
$upscope $end
$scope begin genblk1[70] $end
$upscope $end
$scope begin genblk1[71] $end
$upscope $end
$scope begin genblk1[72] $end
$upscope $end
$scope begin genblk1[73] $end
$upscope $end
$scope begin genblk1[74] $end
$upscope $end
$scope begin genblk1[75] $end
$upscope $end
$scope begin genblk1[76] $end
$upscope $end
$scope begin genblk1[77] $end
$upscope $end
$scope begin genblk1[78] $end
$upscope $end
$scope begin genblk1[79] $end
$upscope $end
$scope begin genblk1[80] $end
$upscope $end
$scope begin genblk1[81] $end
$upscope $end
$scope begin genblk1[82] $end
$upscope $end
$scope begin genblk1[83] $end
$upscope $end
$scope begin genblk1[84] $end
$upscope $end
$scope begin genblk1[85] $end
$upscope $end
$scope begin genblk1[86] $end
$upscope $end
$scope begin genblk1[87] $end
$upscope $end
$scope begin genblk1[88] $end
$upscope $end
$scope begin genblk1[89] $end
$upscope $end
$scope begin genblk1[90] $end
$upscope $end
$scope begin genblk1[91] $end
$upscope $end
$scope begin genblk1[92] $end
$upscope $end
$scope begin genblk1[93] $end
$upscope $end
$scope begin genblk1[94] $end
$upscope $end
$scope begin genblk1[95] $end
$upscope $end
$scope begin genblk1[96] $end
$upscope $end
$scope begin genblk1[97] $end
$upscope $end
$scope begin genblk1[98] $end
$upscope $end
$scope begin genblk1[99] $end
$upscope $end
$scope begin genblk1[100] $end
$upscope $end
$scope begin genblk1[101] $end
$upscope $end
$scope begin genblk1[102] $end
$upscope $end
$scope begin genblk1[103] $end
$upscope $end
$scope begin genblk1[104] $end
$upscope $end
$scope begin genblk1[105] $end
$upscope $end
$scope begin genblk1[106] $end
$upscope $end
$scope begin genblk1[107] $end
$upscope $end
$scope begin genblk1[108] $end
$upscope $end
$scope begin genblk1[109] $end
$upscope $end
$scope begin genblk1[110] $end
$upscope $end
$scope begin genblk1[111] $end
$upscope $end
$scope begin genblk1[112] $end
$upscope $end
$scope begin genblk1[113] $end
$upscope $end
$scope begin genblk1[114] $end
$upscope $end
$scope begin genblk1[115] $end
$upscope $end
$scope begin genblk1[116] $end
$upscope $end
$scope begin genblk1[117] $end
$upscope $end
$scope begin genblk1[118] $end
$upscope $end
$scope begin genblk1[119] $end
$upscope $end
$scope begin genblk1[120] $end
$upscope $end
$scope begin genblk1[121] $end
$upscope $end
$scope begin genblk1[122] $end
$upscope $end
$scope begin genblk1[123] $end
$upscope $end
$scope begin genblk1[124] $end
$upscope $end
$scope begin genblk1[125] $end
$upscope $end
$scope begin genblk1[126] $end
$upscope $end
$scope begin genblk1[127] $end
$upscope $end
$scope begin genblk1[128] $end
$upscope $end
$scope begin genblk1[129] $end
$upscope $end
$scope begin genblk1[130] $end
$upscope $end
$scope begin genblk1[131] $end
$upscope $end
$scope begin genblk1[132] $end
$upscope $end
$scope begin genblk1[133] $end
$upscope $end
$scope begin genblk1[134] $end
$upscope $end
$scope begin genblk1[135] $end
$upscope $end
$scope begin genblk1[136] $end
$upscope $end
$scope begin genblk1[137] $end
$upscope $end
$scope begin genblk1[138] $end
$upscope $end
$scope begin genblk1[139] $end
$upscope $end
$scope begin genblk1[140] $end
$upscope $end
$scope begin genblk1[141] $end
$upscope $end
$scope begin genblk1[142] $end
$upscope $end
$scope begin genblk1[143] $end
$upscope $end
$scope begin genblk1[144] $end
$upscope $end
$scope begin genblk1[145] $end
$upscope $end
$scope begin genblk1[146] $end
$upscope $end
$scope begin genblk1[147] $end
$upscope $end
$scope begin genblk1[148] $end
$upscope $end
$scope begin genblk1[149] $end
$upscope $end
$scope begin genblk1[150] $end
$upscope $end
$scope begin genblk1[151] $end
$upscope $end
$scope begin genblk1[152] $end
$upscope $end
$scope begin genblk1[153] $end
$upscope $end
$scope begin genblk1[154] $end
$upscope $end
$scope begin genblk1[155] $end
$upscope $end
$scope begin genblk1[156] $end
$upscope $end
$scope begin genblk1[157] $end
$upscope $end
$scope begin genblk1[158] $end
$upscope $end
$scope begin genblk1[159] $end
$upscope $end
$scope begin genblk1[160] $end
$upscope $end
$scope begin genblk1[161] $end
$upscope $end
$scope begin genblk1[162] $end
$upscope $end
$scope begin genblk1[163] $end
$upscope $end
$scope begin genblk1[164] $end
$upscope $end
$scope begin genblk1[165] $end
$upscope $end
$scope begin genblk1[166] $end
$upscope $end
$scope begin genblk1[167] $end
$upscope $end
$scope begin genblk1[168] $end
$upscope $end
$scope begin genblk1[169] $end
$upscope $end
$scope begin genblk1[170] $end
$upscope $end
$scope begin genblk1[171] $end
$upscope $end
$scope begin genblk1[172] $end
$upscope $end
$scope begin genblk1[173] $end
$upscope $end
$scope begin genblk1[174] $end
$upscope $end
$scope begin genblk1[175] $end
$upscope $end
$scope begin genblk1[176] $end
$upscope $end
$scope begin genblk1[177] $end
$upscope $end
$scope begin genblk1[178] $end
$upscope $end
$scope begin genblk1[179] $end
$upscope $end
$scope begin genblk1[180] $end
$upscope $end
$scope begin genblk1[181] $end
$upscope $end
$scope begin genblk1[182] $end
$upscope $end
$scope begin genblk1[183] $end
$upscope $end
$scope begin genblk1[184] $end
$upscope $end
$scope begin genblk1[185] $end
$upscope $end
$scope begin genblk1[186] $end
$upscope $end
$scope begin genblk1[187] $end
$upscope $end
$scope begin genblk1[188] $end
$upscope $end
$scope begin genblk1[189] $end
$upscope $end
$scope begin genblk1[190] $end
$upscope $end
$scope begin genblk1[191] $end
$upscope $end
$scope begin genblk1[192] $end
$upscope $end
$scope begin genblk1[193] $end
$upscope $end
$scope begin genblk1[194] $end
$upscope $end
$scope begin genblk1[195] $end
$upscope $end
$scope begin genblk1[196] $end
$upscope $end
$scope begin genblk1[197] $end
$upscope $end
$scope begin genblk1[198] $end
$upscope $end
$scope begin genblk1[199] $end
$upscope $end
$scope begin genblk1[200] $end
$upscope $end
$scope begin genblk1[201] $end
$upscope $end
$scope begin genblk1[202] $end
$upscope $end
$scope begin genblk1[203] $end
$upscope $end
$scope begin genblk1[204] $end
$upscope $end
$scope begin genblk1[205] $end
$upscope $end
$scope begin genblk1[206] $end
$upscope $end
$scope begin genblk1[207] $end
$upscope $end
$scope begin genblk1[208] $end
$upscope $end
$scope begin genblk1[209] $end
$upscope $end
$scope begin genblk1[210] $end
$upscope $end
$scope begin genblk1[211] $end
$upscope $end
$scope begin genblk1[212] $end
$upscope $end
$scope begin genblk1[213] $end
$upscope $end
$scope begin genblk1[214] $end
$upscope $end
$scope begin genblk1[215] $end
$upscope $end
$scope begin genblk1[216] $end
$upscope $end
$scope begin genblk1[217] $end
$upscope $end
$scope begin genblk1[218] $end
$upscope $end
$scope begin genblk1[219] $end
$upscope $end
$scope begin genblk1[220] $end
$upscope $end
$scope begin genblk1[221] $end
$upscope $end
$scope begin genblk1[222] $end
$upscope $end
$scope begin genblk1[223] $end
$upscope $end
$scope begin genblk1[224] $end
$upscope $end
$scope begin genblk1[225] $end
$upscope $end
$scope begin genblk1[226] $end
$upscope $end
$scope begin genblk1[227] $end
$upscope $end
$scope begin genblk1[228] $end
$upscope $end
$scope begin genblk1[229] $end
$upscope $end
$scope begin genblk1[230] $end
$upscope $end
$scope begin genblk1[231] $end
$upscope $end
$scope begin genblk1[232] $end
$upscope $end
$scope begin genblk1[233] $end
$upscope $end
$scope begin genblk1[234] $end
$upscope $end
$scope begin genblk1[235] $end
$upscope $end
$scope begin genblk1[236] $end
$upscope $end
$scope begin genblk1[237] $end
$upscope $end
$scope begin genblk1[238] $end
$upscope $end
$scope begin genblk1[239] $end
$upscope $end
$scope begin genblk1[240] $end
$upscope $end
$scope begin genblk1[241] $end
$upscope $end
$scope begin genblk1[242] $end
$upscope $end
$scope begin genblk1[243] $end
$upscope $end
$scope begin genblk1[244] $end
$upscope $end
$scope begin genblk1[245] $end
$upscope $end
$scope begin genblk1[246] $end
$upscope $end
$scope begin genblk1[247] $end
$upscope $end
$scope begin genblk1[248] $end
$upscope $end
$scope begin genblk1[249] $end
$upscope $end
$scope begin genblk1[250] $end
$upscope $end
$scope begin genblk1[251] $end
$upscope $end
$scope begin genblk1[252] $end
$upscope $end
$scope begin genblk1[253] $end
$upscope $end
$scope begin genblk1[254] $end
$upscope $end
$scope begin genblk1[255] $end
$upscope $end
$upscope $end
$scope task send_tm_line $end
$var reg 16 = instruction [15:0] $end
$var integer 32 > j [31:0] $end
$upscope $end
$upscope $end
$enddefinitions $end
#0
$dumpvars
b101111 >
b1111000000000000 =
bx <
x;
x:
x9
bx 8
bx 7
bx 6
bx 5
bx 4
bx 3
bx 2
x1
bx 0
1/
1.
1-
bx ,
b0 +
bx111100000000000011100000110111010010000000110000110100000000000010110000000000001010000100000111100100000010011110000000001001110111100100001110011010010000111001011001001011110010001000011101010010010010110000111000100010010001000000011000000100000001001011000000000011111100000000001110110000000000110111000000000011001100000000001011110000000000101011000000000010011100000000001000110000000000011111000000000001101100000000000101110000000000010011000000000000111100000000000010110000000000000111000000000000000000000000000000000000000000000000000000000000000000000000000000000000000000000000000000000000000000000000000000000000000000000000000000000000000000000000000000000000000000000000000000000000000000000000000000000000000000000000001111000011110000000000000010 *
b1111111111111111 )
b110000 (
b1111000000000000 '
1&
1%
bx111100000000000011100000110111010010000000110000110100000000000010110000000000001010000100000111100100000010011110000000001001110111100100001110011010010000111001011001001011110010001000011101010010010010110000111000100010010001000000011000000100000001001011000000000011111100000000001110110000000000110111000000000011001100000000001011110000000000101011000000000010011100000000001000110000000000011111000000000001101100000000000101110000000000010011000000000000111100000000000010110000000000000111000000000000000000000000000000000000000000000000000000000000000000000000000000000000000000000000000000000000000000000000000000000000000000000000000000000000000000000000000000000000000000000000000000000000000000000000000000000000000000000000001111000011110000000000000010 $
b1111111111111111 #
1"
0!
$end
#10
b0 0
b0 2
b0 6
b0 5
b0 7
09
0:
01
b111100001111 ,
b0 3
b0 4
b0 8
0;
b10000000000 <
1!
#20
0!
#30
b10000000000 <
1!
#40
0!
#50
b10000000000 <
1!
#60
0!
#70
b10000000000 <
1!
#80
0!
#90
b10000000000 <
1!
#100
0!
0&
#110
b10000000000 <
1!
#120
0!
#130
b10000000000 <
1!
#140
0!
#150
b10000000000 <
1!
#160
0!
#170
b10000000000 <
1!
#180
0!
#190
b10000000000 <
1!
#200
0!
#210
b10000000000 <
1!
#220
0!
#230
b10000000000 <
1!
#240
0!
#250
b10000000000 <
1!
#260
0!
#270
b10000000000 <
1!
#280
0!
#290
b10000000000 <
1!
#300
0!
#310
b10000000000 <
1!
#320
0!
#330
b10000000000 <
1!
#340
0!
#350
b10000000000 <
1!
#360
0!
#370
b10000000000 <
1!
#380
0!
#390
b10000000000 <
1!
#400
0!
#410
b10000000000 <
1!
#420
0!
#430
b10000000000 <
1!
#440
0!
#450
b10000000000 <
1!
#460
0!
#470
b10000000000 <
1!
#480
0!
#490
b10000000000 <
1!
#500
0!
#510
b10000000000 <
1!
#520
0!
#530
b10000000000 <
1!
#540
0!
#550
b10000000000 <
1!
#560
0!
#570
b10000000000 <
1!
#580
0!
#590
b10000000000 <
1!
#600
0!
#610
b10000000000 <
1!
#620
0!
#630
b10000000000 <
1!
#640
0!
#650
b10000000000 <
1!
#660
0!
#670
b10000000000 <
1!
#680
0!
#690
b10000000000 <
1!
#700
0!
#710
b10000000000 <
1!
#720
0!
#730
b10000000000 <
1!
#740
0!
#750
b10000000000 <
1!
#760
0!
#770
b10000000000 <
1!
#780
0!
#790
b10000000000 <
1!
#800
0!
#810
b10000000000 <
1!
#820
0!
#830
b10000000000 <
1!
#840
0!
#850
b10000000000 <
1!
#860
0!
#870
b10000000000 <
1!
#880
0!
#890
b10000000000 <
1!
#900
0!
#910
b10000000000 <
1!
#920
0!
#930
b10000000000 <
1!
#940
0!
#950
b10000000000 <
1!
#960
0!
#970
b10000000000 <
1!
#980
0!
#990
b10000000000 <
1!
#1000
0!
#1010
b10000000000 <
1!
#1020
0!
#1030
b10000000000 <
1!
#1040
0!
#1050
b10000000000 <
1!
#1060
0!
#1070
b10000000000 <
1!
#1080
0!
#1090
b10000000000 <
1!
#1100
0!
#1110
b10000000000 <
1!
#1120
0!
#1130
b10000000000 <
1!
#1140
0!
#1150
b10000000000 <
1!
#1160
0!
#1170
b10000000000 <
1!
#1180
0!
#1190
b10000000000 <
1!
#1200
0!
#1210
b10000000000 <
1!
#1220
0!
#1230
b10000000000 <
1!
#1240
0!
#1250
b10000000000 <
1!
#1260
0!
#1270
b10000000000 <
1!
#1280
0!
#1290
b10000000000 <
1!
#1300
0!
#1310
b10000000000 <
1!
#1320
0!
#1330
b10000000000 <
1!
#1340
0!
#1350
b10000000000 <
1!
#1360
0!
#1370
b10000000000 <
1!
#1380
0!
#1390
b10000000000 <
1!
#1400
0!
#1410
b10000000000 <
1!
#1420
0!
#1430
b10000000000 <
1!
#1440
0!
#1450
b10000000000 <
1!
#1460
0!
#1470
b10000000000 <
1!
#1480
0!
#1490
b10000000000 <
1!
#1500
0!
#1510
b10000000000 <
1!
#1520
0!
#1530
b10000000000 <
1!
#1540
0!
#1550
b10000000000 <
1!
#1560
0!
#1570
b10000000000 <
1!
#1580
0!
#1590
b10000000000 <
1!
#1600
0!
#1610
b10000000000 <
1!
#1620
0!
#1630
b10000000000 <
1!
#1640
0!
#1650
b10000000000 <
1!
#1660
0!
#1670
b10000000000 <
1!
#1680
0!
#1690
b10000000000 <
1!
#1700
0!
#1710
b10000000000 <
1!
#1720
0!
#1730
b10000000000 <
1!
#1740
0!
#1750
b10000000000 <
1!
#1760
0!
#1770
b10000000000 <
1!
#1780
0!
#1790
b10000000000 <
1!
#1800
0!
#1810
b10000000000 <
1!
#1820
0!
#1830
b10000000000 <
1!
#1840
0!
#1850
b10000000000 <
1!
#1860
0!
#1870
b10000000000 <
1!
#1880
0!
#1890
b10000000000 <
1!
#1900
0!
#1910
b10000000000 <
1!
#1920
0!
#1930
b10000000000 <
1!
#1940
0!
#1950
b10000000000 <
1!
#1960
0!
#1970
b10000000000 <
1!
#1980
0!
#1990
b10000000000 <
1!
#2000
0!
#2010
b10000000000 <
1!
#2020
0!
#2030
b10000000000 <
1!
#2040
0!
#2050
b10000000000 <
1!
#2060
0!
#2070
b10000000000 <
1!
#2080
0!
#2090
b10000000000 <
1!
#2100
0!
#2110
b10000000000 <
1!
#2120
0!
#2130
b10000000000 <
1!
#2140
0!
#2150
b10000000000 <
1!
#2160
0!
#2170
b10000000000 <
1!
#2180
0!
#2190
b10000000000 <
1!
#2200
0!
#2210
b10000000000 <
1!
#2220
0!
#2230
b10000000000 <
1!
#2240
0!
#2250
b10000000000 <
1!
#2260
0!
#2270
b10000000000 <
1!
#2280
0!
#2290
b10000000000 <
1!
#2300
0!
#2310
b10000000000 <
1!
#2320
0!
#2330
b10000000000 <
1!
#2340
0!
#2350
b10000000000 <
1!
#2360
0!
#2370
b10000000000 <
1!
#2380
0!
#2390
b10000000000 <
1!
#2400
0!
#2410
b10000000000 <
1!
#2420
0!
#2430
b10000000000 <
1!
#2440
0!
#2450
b10000000000 <
1!
#2460
0!
#2470
b10000000000 <
1!
#2480
0!
#2490
b10000000000 <
1!
#2500
0!
#2510
b10000000000 <
1!
#2520
0!
#2530
b10000000000 <
1!
#2540
0!
#2550
b10000000000 <
1!
#2560
0!
#2570
b10000000000 <
1!
#2580
0!
#2590
b10000000000 <
1!
#2600
0!
#2610
b10000000000 <
1!
#2620
0!
#2630
b10000000000 <
1!
#2640
0!
#2650
b10000000000 <
1!
#2660
0!
#2670
b10000000000 <
1!
#2680
0!
#2690
b10000000000 <
1!
#2700
0!
#2710
b10000000000 <
1!
#2720
0!
#2730
b10000000000 <
1!
#2740
0!
#2750
b10000000000 <
1!
#2760
0!
#2770
b10000000000 <
1!
#2780
0!
#2790
b10000000000 <
1!
#2800
0!
#2810
b10000000000 <
1!
#2820
0!
#2830
b10000000000 <
1!
#2840
0!
#2850
b10000000000 <
1!
#2860
0!
#2870
b10000000000 <
1!
#2880
0!
#2890
b10000000000 <
1!
#2900
0!
#2910
b10000000000 <
1!
#2920
0!
#2930
b10000000000 <
1!
#2940
0!
#2950
b10000000000 <
1!
#2960
0!
#2970
b10000000000 <
1!
#2980
0!
#2990
b10000000000 <
1!
#3000
0!
#3010
b10000000000 <
1!
#3020
0!
#3030
b10000000000 <
1!
#3040
0!
#3050
b10000000000 <
1!
#3060
0!
#3070
b10000000000 <
1!
#3080
0!
#3090
b10000000000 <
1!
#3100
0!
#3110
b10000000000 <
1!
#3120
0!
#3130
b10000000000 <
1!
#3140
0!
#3150
b10000000000 <
1!
#3160
0!
#3170
b10000000000 <
1!
#3180
0!
#3190
b10000000000 <
1!
#3200
0!
#3210
b10000000000 <
1!
#3220
0!
#3230
b10000000000 <
1!
#3240
0!
#3250
b10000000000 <
1!
#3260
0!
#3270
b10000000000 <
1!
#3280
0!
#3290
b10000000000 <
1!
#3300
0!
#3310
b10000000000 <
1!
#3320
0!
#3330
b10000000000 <
1!
#3340
0!
#3350
b10000000000 <
1!
#3360
0!
#3370
b10000000000 <
1!
#3380
0!
#3390
b10000000000 <
1!
#3400
0!
#3410
b10000000000 <
1!
#3420
0!
#3430
b10000000000 <
1!
#3440
0!
#3450
b10000000000 <
1!
#3460
0!
#3470
b10000000000 <
1!
#3480
0!
#3490
b10000000000 <
1!
#3500
0!
#3510
b10000000000 <
1!
#3520
0!
#3530
b10000000000 <
1!
#3540
0!
#3550
b10000000000 <
1!
#3560
0!
#3570
b10000000000 <
1!
#3580
0!
#3590
b10000000000 <
1!
#3600
0!
#3610
b10000000000 <
1!
#3620
0!
#3630
b10000000000 <
1!
#3640
0!
#3650
b10000000000 <
1!
#3660
0!
#3670
b10000000000 <
1!
#3680
0!
#3690
b10000000000 <
1!
#3700
0!
#3710
b10000000000 <
1!
#3720
0!
#3730
b10000000000 <
1!
#3740
0!
#3750
b10000000000 <
1!
#3760
0!
#3770
b10000000000 <
1!
#3780
0!
#3790
b10000000000 <
1!
#3800
0!
#3810
b10000000000 <
1!
#3820
0!
#3830
b10000000000 <
1!
#3840
0!
#3850
b10000000000 <
1!
#3860
0!
#3870
b10000000000 <
1!
#3880
0!
#3890
b10000000000 <
1!
#3900
0!
#3910
b10000000000 <
1!
#3920
0!
#3930
b10000000000 <
1!
#3940
0!
#3950
b10000000000 <
1!
#3960
0!
#3970
b10000000000 <
1!
#3980
0!
#3990
b10000000000 <
1!
#4000
0!
#4010
b10000000000 <
1!
#4020
0!
#4030
b10000000000 <
1!
#4040
0!
#4050
b10000000000 <
1!
#4060
0!
#4070
b10000000000 <
1!
#4080
0!
#4090
b10000000000 <
1!
#4100
0!
#4110
b10000000000 <
1!
#4120
0!
#4130
b10000000000 <
1!
#4140
0!
#4150
b10000000000 <
1!
#4160
0!
#4170
b10000000000 <
1!
#4180
0!
#4190
b10000000000 <
1!
#4200
0!
#4210
b10000000000 <
1!
#4220
0!
#4230
b10000000000 <
1!
#4240
0!
#4250
b10000000000 <
1!
#4260
0!
#4270
b10000000000 <
1!
#4280
0!
#4290
b10000000000 <
1!
#4300
0!
#4310
b10000000000 <
1!
#4320
0!
#4330
b10000000000 <
1!
#4340
0!
#4350
b10000000000 <
1!
#4360
0!
#4370
b10000000000 <
1!
#4380
0!
#4390
b10000000000 <
1!
#4400
0!
#4410
b10000000000 <
1!
#4420
0!
#4430
b10000000000 <
1!
#4440
0!
#4450
b10000000000 <
1!
#4460
0!
#4470
b10000000000 <
1!
#4480
0!
#4490
b10000000000 <
1!
#4500
0!
#4510
b10000000000 <
1!
#4520
0!
#4530
b10000000000 <
1!
#4540
0!
#4550
b10000000000 <
1!
#4560
0!
#4570
b10000000000 <
1!
#4580
0!
#4590
b10000000000 <
1!
#4600
0!
#4610
b10000000000 <
1!
#4620
0!
#4630
b10000000000 <
1!
#4640
0!
#4650
b10000000000 <
1!
#4660
0!
#4670
b10000000000 <
1!
#4680
0!
#4690
b10000000000 <
1!
#4700
0!
#4710
b10000000000 <
1!
#4720
0!
#4730
b10000000000 <
1!
#4740
0!
#4750
b10000000000 <
1!
#4760
0!
#4770
b10000000000 <
1!
#4780
0!
#4790
b10000000000 <
1!
#4800
0!
#4810
b10000000000 <
1!
#4820
0!
#4830
b10000000000 <
1!
#4840
0!
#4850
b10000000000 <
1!
#4860
0!
#4870
b10000000000 <
1!
#4880
0!
#4890
b10000000000 <
1!
#4900
0!
#4910
b10000000000 <
1!
#4920
0!
#4930
b10000000000 <
1!
#4940
0!
#4950
b10000000000 <
1!
#4960
0!
#4970
b10000000000 <
1!
#4980
0!
#4990
b10000000000 <
1!
#5000
0!
#5010
b10000000000 <
1!
#5020
0!
#5030
b10000000000 <
1!
#5040
0!
#5050
b10000000000 <
1!
#5060
0!
#5070
b10000000000 <
1!
#5080
0!
#5090
b10000000000 <
1!
#5100
0!
#5110
b10000000000 <
1!
#5120
0!
#5130
b10000000000 <
1!
#5140
0!
#5150
b10000000000 <
1!
#5160
0!
#5170
b10000000000 <
1!
#5180
0!
#5190
b10000000000 <
1!
#5200
0!
#5210
b10000000000 <
1!
#5220
0!
#5230
b10000000000 <
1!
#5240
0!
#5250
b10000000000 <
1!
#5260
0!
#5270
b10000000000 <
1!
#5280
0!
#5290
b10000000000 <
1!
#5300
0!
#5310
b10000000000 <
1!
#5320
0!
#5330
b10000000000 <
1!
#5340
0!
#5350
b10000000000 <
1!
#5360
0!
#5370
b10000000000 <
1!
#5380
0!
#5390
b10000000000 <
1!
#5400
0!
#5410
b10000000000 <
1!
#5420
0!
#5430
b10000000000 <
1!
#5440
0!
#5450
b10000000000 <
1!
#5460
0!
#5470
b10000000000 <
1!
#5480
0!
#5490
b10000000000 <
1!
#5500
0!
#5510
b10000000000 <
1!
#5520
0!
#5530
b10000000000 <
1!
#5540
0!
#5550
b10000000000 <
1!
#5560
0!
#5570
b10000000000 <
1!
#5580
0!
#5590
b10000000000 <
1!
#5600
0!
#5610
b10000000000 <
1!
#5620
0!
#5630
b10000000000 <
1!
#5640
0!
#5650
b10000000000 <
1!
#5660
0!
#5670
b10000000000 <
1!
#5680
0!
#5690
b10000000000 <
1!
#5700
0!
#5710
b10000000000 <
1!
#5720
0!
#5730
b10000000000 <
1!
#5740
0!
#5750
b10000000000 <
1!
#5760
0!
#5770
b10000000000 <
1!
#5780
0!
#5790
b10000000000 <
1!
#5800
0!
#5810
b10000000000 <
1!
#5820
0!
#5830
b10000000000 <
1!
#5840
0!
#5850
b10000000000 <
1!
#5860
0!
#5870
b10000000000 <
1!
#5880
0!
#5890
b10000000000 <
1!
#5900
0!
#5910
b10000000000 <
1!
#5920
0!
#5930
b10000000000 <
1!
#5940
0!
#5950
b10000000000 <
1!
#5960
0!
#5970
b10000000000 <
1!
#5980
0!
#5990
b10000000000 <
1!
#6000
0!
#6010
b10000000000 <
1!
#6020
0!
#6030
b10000000000 <
1!
#6040
0!
#6050
b10000000000 <
1!
#6060
0!
#6070
b10000000000 <
1!
#6080
0!
#6090
b10000000000 <
1!
#6100
0!
#6110
b10000000000 <
1!
#6120
0!
#6130
b10000000000 <
1!
#6140
0!
#6150
b10000000000 <
1!
#6160
0!
#6170
b10000000000 <
1!
#6180
0!
#6190
b10000000000 <
1!
#6200
0!
#6210
b10000000000 <
1!
#6220
0!
#6230
b10000000000 <
1!
#6240
0!
#6250
b10000000000 <
1!
#6260
0!
#6270
b10000000000 <
1!
#6280
0!
#6290
b10000000000 <
1!
#6300
0!
#6310
b10000000000 <
1!
#6320
0!
#6330
b10000000000 <
1!
#6340
0!
#6350
b10000000000 <
1!
#6360
0!
#6370
b10000000000 <
1!
#6380
0!
#6390
b10000000000 <
1!
#6400
0!
#6410
b10000000000 <
1!
#6420
0!
#6430
b10000000000 <
1!
#6440
0!
#6450
b10000000000 <
1!
#6460
0!
#6470
b10000000000 <
1!
#6480
0!
#6490
b10000000000 <
1!
#6500
0!
#6510
b10000000000 <
1!
#6520
0!
#6530
b10000000000 <
1!
#6540
0!
#6550
b10000000000 <
1!
#6560
0!
#6570
b10000000000 <
1!
#6580
0!
#6590
b10000000000 <
1!
#6600
0!
#6610
b10000000000 <
1!
#6620
0!
#6630
b10000000000 <
1!
#6640
0!
#6650
b10000000000 <
1!
#6660
0!
#6670
b10000000000 <
1!
#6680
0!
#6690
b10000000000 <
1!
#6700
0!
#6710
b10000000000 <
1!
#6720
0!
#6730
b10000000000 <
1!
#6740
0!
#6750
b10000000000 <
1!
#6760
0!
#6770
b10000000000 <
1!
#6780
0!
#6790
b10000000000 <
1!
#6800
0!
#6810
b10000000000 <
1!
#6820
0!
#6830
b10000000000 <
1!
#6840
0!
#6850
b10000000000 <
1!
#6860
0!
#6870
b10000000000 <
1!
#6880
0!
#6890
b10000000000 <
1!
#6900
0!
#6910
b10000000000 <
1!
#6920
0!
#6930
b10000000000 <
1!
#6940
0!
#6950
b10000000000 <
1!
#6960
0!
#6970
b10000000000 <
1!
#6980
0!
#6990
b10000000000 <
1!
#7000
0!
#7010
b10000000000 <
1!
#7020
0!
#7030
b10000000000 <
1!
#7040
0!
#7050
b10000000000 <
1!
#7060
0!
#7070
b10000000000 <
1!
#7080
0!
#7090
b10000000000 <
1!
#7100
0!
#7110
b10000000000 <
1!
#7120
0!
#7130
b10000000000 <
1!
#7140
0!
#7150
b10000000000 <
1!
#7160
0!
#7170
b10000000000 <
1!
#7180
0!
#7190
b10000000000 <
1!
#7200
0!
#7210
b10000000000 <
1!
#7220
0!
#7230
b10000000000 <
1!
#7240
0!
